^C:\USERS\VIT-O\SOURCE\REPOS\HW13.4\DEBUG\HELPERS.OBJ|C:\USERS\VIT-O\SOURCE\REPOS\HW13.4\DEBUG\MAIN.OBJ
C:\USERS\VIT-O\SOURCE\REPOS\HW13.4\DEBUG\HW13.4.EXE
C:\USERS\VIT-O\SOURCE\REPOS\HW13.4\DEBUG\HW13.4.ILK
C:\USERS\VIT-O\SOURCE\REPOS\HW13.4\DEBUG\HW13.4.PDB
